108.06.19 14:50 B c:\TEMP\httpdocs\scripts\fh_common.php <-- MFCweb /httpdocs/scripts fh_common.php
108.06.19 14:50 B c:\TEMP\httpdocs\scripts\fh_EmailTemplate.properties <-- MFCweb /httpdocs/scripts fh_EmailTemplate.properties
108.06.19 14:50 B c:\TEMP\httpdocs\scripts\fh_emailTemplate_de.properties <-- MFCweb /httpdocs/scripts fh_emailTemplate_de.properties
108.06.19 14:50 B c:\TEMP\httpdocs\scripts\fh_emailTemplate_en.properties <-- MFCweb /httpdocs/scripts fh_emailTemplate_en.properties
108.06.19 14:50 B c:\TEMP\httpdocs\scripts\fh_formshandler.php <-- MFCweb /httpdocs/scripts fh_formshandler.php
108.06.19 14:50 B c:\TEMP\httpdocs\scripts\fh_mailer.php <-- MFCweb /httpdocs/scripts fh_mailer.php
108.06.19 14:50 B c:\TEMP\httpdocs\scripts\fh_manager.php <-- MFCweb /httpdocs/scripts fh_manager.php
108.06.19 14:50 B c:\TEMP\httpdocs\scripts\fh_remembervalues.php <-- MFCweb /httpdocs/scripts fh_remembervalues.php
108.06.19 14:50 B c:\TEMP\httpdocs\scripts\fh_xmlparser.php <-- MFCweb /httpdocs/scripts fh_xmlparser.php
108.06.19 14:50 B c:\TEMP\httpdocs\scripts\FormHandler.php <-- MFCweb /httpdocs/scripts FormHandler.php
108.06.19 14:50 B c:\TEMP\httpdocs\scripts\FormInfoLAYOUTFORM.XML <-- MFCweb /httpdocs/scripts FormInfoLAYOUTFORM.XML
108.06.19 14:50 B c:\TEMP\httpdocs\scripts\FormsHandler_de.properties <-- MFCweb /httpdocs/scripts FormsHandler_de.properties
108.06.19 14:50 B c:\TEMP\httpdocs\scripts\FormsHandler_en.properties <-- MFCweb /httpdocs/scripts FormsHandler_en.properties
108.06.19 14:50 B c:\TEMP\httpdocs\scripts\General_de.properties <-- MFCweb /httpdocs/scripts General_de.properties
108.06.19 14:50 B c:\TEMP\httpdocs\scripts\General_de1.properties <-- MFCweb /httpdocs/scripts General_de1.properties
108.06.19 14:50 B c:\TEMP\httpdocs\scripts\General_en.properties <-- MFCweb /httpdocs/scripts General_en.properties
108.06.19 14:50 B c:\TEMP\httpdocs\scripts\General_en1.properties <-- MFCweb /httpdocs/scripts General_en1.properties
108.06.19 14:50 B c:\TEMP\httpdocs\scripts\interval_handle.js <-- MFCweb /httpdocs/scripts interval_handle.js
108.06.19 14:50 B c:\TEMP\httpdocs\scripts\manager.js <-- MFCweb /httpdocs/scripts manager.js
108.06.19 14:51 B c:\TEMP\httpdocs\scripts\nof_utils.inc.php <-- MFCweb /httpdocs/scripts nof_utils.inc.php
108.06.19 14:51 B c:\TEMP\httpdocs\scripts\nof_utils.inc1.php <-- MFCweb /httpdocs/scripts nof_utils.inc1.php
108.06.19 14:51 B c:\TEMP\httpdocs\scripts\rotating_picture.js <-- MFCweb /httpdocs/scripts rotating_picture.js
108.06.19 14:51 B c:\TEMP\httpdocs\scripts\SecureSite_de.properties <-- MFCweb /httpdocs/scripts SecureSite_de.properties
108.06.19 14:51 B c:\TEMP\httpdocs\scripts\SecureSite_en.properties <-- MFCweb /httpdocs/scripts SecureSite_en.properties
108.06.19 14:51 B c:\TEMP\httpdocs\scripts\ss_admin.js <-- MFCweb /httpdocs/scripts ss_admin.js
108.06.19 14:51 B c:\TEMP\httpdocs\scripts\ss_admin.php <-- MFCweb /httpdocs/scripts ss_admin.php
108.06.19 14:51 B c:\TEMP\httpdocs\scripts\ss_AdminTemplate.properties <-- MFCweb /httpdocs/scripts ss_AdminTemplate.properties
108.06.19 14:51 B c:\TEMP\httpdocs\scripts\ss_changepassword.php <-- MFCweb /httpdocs/scripts ss_changepassword.php
108.06.19 14:51 B c:\TEMP\httpdocs\scripts\ss_ChangePasswordTemplate.properties <-- MFCweb /httpdocs/scripts ss_ChangePasswordTemplate.properties
108.06.19 14:51 B c:\TEMP\httpdocs\scripts\ss_common.php <-- MFCweb /httpdocs/scripts ss_common.php
108.06.19 14:51 B c:\TEMP\httpdocs\scripts\ss_getpassword.php <-- MFCweb /httpdocs/scripts ss_getpassword.php
108.06.19 14:51 B c:\TEMP\httpdocs\scripts\ss_GetPasswordTemplate.properties <-- MFCweb /httpdocs/scripts ss_GetPasswordTemplate.properties
108.06.19 14:51 B c:\TEMP\httpdocs\scripts\ss_login.php <-- MFCweb /httpdocs/scripts ss_login.php
108.06.19 14:51 B c:\TEMP\httpdocs\scripts\ss_logout.php <-- MFCweb /httpdocs/scripts ss_logout.php
108.06.19 14:51 B c:\TEMP\httpdocs\scripts\ss_mailer.php <-- MFCweb /httpdocs/scripts ss_mailer.php
108.06.19 14:51 B c:\TEMP\httpdocs\scripts\ss_remembervalues.php <-- MFCweb /httpdocs/scripts ss_remembervalues.php
108.06.19 14:51 B c:\TEMP\httpdocs\scripts\ss_secureadminpage.php <-- MFCweb /httpdocs/scripts ss_secureadminpage.php
108.06.19 14:51 B c:\TEMP\httpdocs\scripts\ss_securepage.php <-- MFCweb /httpdocs/scripts ss_securepage.php
108.06.19 14:51 B c:\TEMP\httpdocs\scripts\ss_signup.php <-- MFCweb /httpdocs/scripts ss_signup.php
108.06.19 14:51 B c:\TEMP\httpdocs\scripts\ss_SignupTemplate.properties <-- MFCweb /httpdocs/scripts ss_SignupTemplate.properties
108.06.19 14:51 B c:\TEMP\httpdocs\scripts\ss_xmlparser.php <-- MFCweb /httpdocs/scripts ss_xmlparser.php
108.06.19 14:57 B c:\TEMP\httpdocs\scripts\fh_common.php --> dreamer.lunarmania.com /public_html/httpdocs/scripts fh_common.php
108.06.19 14:57 B c:\TEMP\httpdocs\scripts\fh_EmailTemplate.properties --> dreamer.lunarmania.com /public_html/httpdocs/scripts fh_EmailTemplate.properties
108.06.19 14:57 B c:\TEMP\httpdocs\scripts\fh_emailTemplate_de.properties --> dreamer.lunarmania.com /public_html/httpdocs/scripts fh_emailTemplate_de.properties
108.06.19 14:57 B c:\TEMP\httpdocs\scripts\fh_emailTemplate_en.properties --> dreamer.lunarmania.com /public_html/httpdocs/scripts fh_emailTemplate_en.properties
108.06.19 14:57 B c:\TEMP\httpdocs\scripts\fh_formshandler.php --> dreamer.lunarmania.com /public_html/httpdocs/scripts fh_formshandler.php
108.06.19 14:57 B c:\TEMP\httpdocs\scripts\fh_mailer.php --> dreamer.lunarmania.com /public_html/httpdocs/scripts fh_mailer.php
108.06.19 14:57 B c:\TEMP\httpdocs\scripts\fh_manager.php --> dreamer.lunarmania.com /public_html/httpdocs/scripts fh_manager.php
108.06.19 14:57 B c:\TEMP\httpdocs\scripts\fh_remembervalues.php --> dreamer.lunarmania.com /public_html/httpdocs/scripts fh_remembervalues.php
108.06.19 14:57 B c:\TEMP\httpdocs\scripts\fh_xmlparser.php --> dreamer.lunarmania.com /public_html/httpdocs/scripts fh_xmlparser.php
108.06.19 14:57 B c:\TEMP\httpdocs\scripts\FormHandler.php --> dreamer.lunarmania.com /public_html/httpdocs/scripts FormHandler.php
108.06.19 14:57 B c:\TEMP\httpdocs\scripts\FormInfoLAYOUTFORM.XML --> dreamer.lunarmania.com /public_html/httpdocs/scripts FormInfoLAYOUTFORM.XML
108.06.19 14:57 B c:\TEMP\httpdocs\scripts\FormsHandler_de.properties --> dreamer.lunarmania.com /public_html/httpdocs/scripts FormsHandler_de.properties
108.06.19 14:57 B c:\TEMP\httpdocs\scripts\FormsHandler_en.properties --> dreamer.lunarmania.com /public_html/httpdocs/scripts FormsHandler_en.properties
108.06.19 14:57 B c:\TEMP\httpdocs\scripts\General_de.properties --> dreamer.lunarmania.com /public_html/httpdocs/scripts General_de.properties
108.06.19 14:57 B c:\TEMP\httpdocs\scripts\General_de1.properties --> dreamer.lunarmania.com /public_html/httpdocs/scripts General_de1.properties
108.06.19 14:57 B c:\TEMP\httpdocs\scripts\General_en.properties --> dreamer.lunarmania.com /public_html/httpdocs/scripts General_en.properties
108.06.19 14:57 B c:\TEMP\httpdocs\scripts\General_en1.properties --> dreamer.lunarmania.com /public_html/httpdocs/scripts General_en1.properties
108.06.19 14:57 B c:\TEMP\httpdocs\scripts\interval_handle.js --> dreamer.lunarmania.com /public_html/httpdocs/scripts interval_handle.js
108.06.19 14:57 B c:\TEMP\httpdocs\scripts\manager.js --> dreamer.lunarmania.com /public_html/httpdocs/scripts manager.js
108.06.19 14:57 B c:\TEMP\httpdocs\scripts\nof_utils.inc.php --> dreamer.lunarmania.com /public_html/httpdocs/scripts nof_utils.inc.php
108.06.19 14:57 B c:\TEMP\httpdocs\scripts\nof_utils.inc1.php --> dreamer.lunarmania.com /public_html/httpdocs/scripts nof_utils.inc1.php
108.06.19 14:57 B c:\TEMP\httpdocs\scripts\rotating_picture.js --> dreamer.lunarmania.com /public_html/httpdocs/scripts rotating_picture.js
108.06.19 14:57 B c:\TEMP\httpdocs\scripts\SecureSite_de.properties --> dreamer.lunarmania.com /public_html/httpdocs/scripts SecureSite_de.properties
108.06.19 14:57 B c:\TEMP\httpdocs\scripts\SecureSite_en.properties --> dreamer.lunarmania.com /public_html/httpdocs/scripts SecureSite_en.properties
108.06.19 14:57 B c:\TEMP\httpdocs\scripts\ss_admin.js --> dreamer.lunarmania.com /public_html/httpdocs/scripts ss_admin.js
108.06.19 14:57 B c:\TEMP\httpdocs\scripts\ss_admin.php --> dreamer.lunarmania.com /public_html/httpdocs/scripts ss_admin.php
108.06.19 14:57 B c:\TEMP\httpdocs\scripts\ss_AdminTemplate.properties --> dreamer.lunarmania.com /public_html/httpdocs/scripts ss_AdminTemplate.properties
108.06.19 14:57 B c:\TEMP\httpdocs\scripts\ss_changepassword.php --> dreamer.lunarmania.com /public_html/httpdocs/scripts ss_changepassword.php
108.06.19 14:57 B c:\TEMP\httpdocs\scripts\ss_ChangePasswordTemplate.properties --> dreamer.lunarmania.com /public_html/httpdocs/scripts ss_ChangePasswordTemplate.properties
108.06.19 14:57 B c:\TEMP\httpdocs\scripts\ss_common.php --> dreamer.lunarmania.com /public_html/httpdocs/scripts ss_common.php
108.06.19 14:57 B c:\TEMP\httpdocs\scripts\ss_getpassword.php --> dreamer.lunarmania.com /public_html/httpdocs/scripts ss_getpassword.php
108.06.19 14:57 B c:\TEMP\httpdocs\scripts\ss_GetPasswordTemplate.properties --> dreamer.lunarmania.com /public_html/httpdocs/scripts ss_GetPasswordTemplate.properties
108.06.19 14:57 B c:\TEMP\httpdocs\scripts\ss_login.php --> dreamer.lunarmania.com /public_html/httpdocs/scripts ss_login.php
108.06.19 14:57 B c:\TEMP\httpdocs\scripts\ss_logout.php --> dreamer.lunarmania.com /public_html/httpdocs/scripts ss_logout.php
108.06.19 14:57 B c:\TEMP\httpdocs\scripts\ss_mailer.php --> dreamer.lunarmania.com /public_html/httpdocs/scripts ss_mailer.php
108.06.19 14:57 B c:\TEMP\httpdocs\scripts\ss_remembervalues.php --> dreamer.lunarmania.com /public_html/httpdocs/scripts ss_remembervalues.php
108.06.19 14:57 B c:\TEMP\httpdocs\scripts\ss_secureadminpage.php --> dreamer.lunarmania.com /public_html/httpdocs/scripts ss_secureadminpage.php
108.06.19 14:57 B c:\TEMP\httpdocs\scripts\ss_securepage.php --> dreamer.lunarmania.com /public_html/httpdocs/scripts ss_securepage.php
108.06.19 14:57 B c:\TEMP\httpdocs\scripts\ss_signup.php --> dreamer.lunarmania.com /public_html/httpdocs/scripts ss_signup.php
108.06.19 14:57 B c:\TEMP\httpdocs\scripts\ss_SignupTemplate.properties --> dreamer.lunarmania.com /public_html/httpdocs/scripts ss_SignupTemplate.properties
108.06.19 14:57 B c:\TEMP\httpdocs\scripts\ss_xmlparser.php --> dreamer.lunarmania.com /public_html/httpdocs/scripts ss_xmlparser.php
